muxN/mux2.log
# End time: 21:09:54 on Sep 11,2025, Elapsed time: 0:01:21
# Errors: 1, Warnings: 0
# vsim work.tb_mux2 -l mux2.log 
# Start time: 21:09:54 on Sep 11,2025
# Loading work.tb_mux2
# Loading work.muxN
# Loading work.mux
# 01 01  0  01
# 01 01  1  01
# 10 01  1  01
# 10 01  1  01
# 00 01  1  01
# 01 10  0  01
# 11 10  1  10
# 10 10  1  10
# 01 00  0  01
# 01 01  1  01
# 10 00  1  00
# 10 01  0  10
# 11 01  0  11
# 11 01  1  01
# 10 01  0  10
# 11 10  1  10
# 00 10  0  00
# 01 00  0  01
# 01 11  0  01
# 10 10  0  10
# 10 11  0  10
# 01 11  1  11
# 10 10  1  10
# 01 01  1  01
# 00 11  0  00
# 00 11  1  11
# 00 11  1  11
# 01 00  1  00
# 01 10  1  10
# 10 00  0  10
# 01 10  1  10
# 01 01  0  01
# 11 01  1  01
# 11 01  0  11
# 10 00  1  00
# 10 00  0  10
# 10 11  0  10
# 11 11  1  11
# 00 11  1  11
# 10 10  1  10
