muxN/mux3.log
# End time: 21:09:56 on Sep 11,2025, Elapsed time: 0:00:02
# Errors: 0, Warnings: 0
# vsim work.tb_mux3 -l mux3.log 
# Start time: 21:09:56 on Sep 11,2025
# Loading work.tb_mux3
# Loading work.muxN
# Loading work.mux
# 001 001  0  001
# 101 101  1  101
# 010 001  1  001
# 110 101  1  101
# 100 001  1  001
# 101 010  0  101
# 111 010  1  010
# 010 110  1  110
# 101 100  0  101
# 101 101  1  101
# 010 000  1  000
# 010 101  0  010
# 011 101  0  011
# 011 101  1  101
# 110 101  0  110
# 011 010  1  010
# 100 010  0  100
# 001 000  0  001
# 001 011  0  001
# 110 110  0  110
# 010 011  0  010
# 101 111  1  111
# 010 110  1  110
# 001 001  1  001
# 100 111  0  100
# 000 111  1  111
# 100 011  1  011
# 001 000  1  000
# 001 110  1  110
# 010 000  0  010
# 101 010  1  010
# 101 001  0  101
# 011 101  1  101
# 011 001  0  011
# 010 000  1  000
# 110 100  0  110
# 110 011  0  110
# 111 011  1  011
# 100 111  1  111
# 110 010  1  010
