muxN/mux4.log
# End time: 21:09:58 on Sep 11,2025, Elapsed time: 0:00:02
# Errors: 0, Warnings: 0
# vsim work.tb_mux4 -l mux4.log 
# Start time: 21:09:58 on Sep 11,2025
# Loading work.tb_mux4
# Loading work.muxN
# Loading work.mux
# 0001 1001  0  0001
# 1101 1101  1  1101
# 0010 0001  1  0001
# 0110 1101  1  1101
# 1100 1001  1  1001
# 0101 1010  0  0101
# 0111 0010  1  0010
# 0010 1110  1  1110
# 0101 1100  0  0101
# 1101 0101  1  0101
# 1010 0000  1  0000
# 1010 1101  0  1010
# 0011 1101  0  0011
# 1011 0101  1  0101
# 1110 1101  0  1110
# 0011 1010  1  1010
# 1100 0010  0  1100
# 0001 1000  0  0001
# 1001 1011  0  1001
# 0110 1110  0  0110
# 1010 1011  0  1010
# 0101 1111  1  1111
# 1010 1110  1  1110
# 0001 1001  1  1001
# 1100 1111  0  1100
# 1000 0111  1  0111
# 1100 1011  1  1011
# 1001 0000  1  0000
# 0001 0110  1  0110
# 0010 1000  0  0010
# 1101 0010  1  0010
# 1101 1001  0  1101
# 0011 0101  1  0101
# 1011 1001  0  1011
# 1010 1000  1  1000
# 1110 1100  0  1110
# 0110 0011  0  0110
# 1111 0011  1  0011
# 0100 0111  1  0111
# 0110 1010  1  1010
