muxN/mux5.log
# End time: 21:09:59 on Sep 11,2025, Elapsed time: 0:00:01
# Errors: 0, Warnings: 0
# vsim work.tb_mux5 -l mux5.log 
# Start time: 21:09:59 on Sep 11,2025
# Loading work.tb_mux5
# Loading work.muxN
# Loading work.mux
# 00001 01001  0  00001
# 01101 01101  1  01101
# 10010 00001  1  00001
# 10110 11101  1  11101
# 01100 11001  1  11001
# 00101 01010  0  00101
# 10111 10010  1  10010
# 10010 01110  1  01110
# 00101 11100  0  00101
# 01101 00101  1  00101
# 01010 00000  1  00000
# 01010 11101  0  01010
# 10011 01101  0  10011
# 01011 10101  1  10101
# 01110 11101  0  01110
# 00011 01010  1  01010
# 11100 10010  0  11100
# 00001 11000  0  00001
# 01001 01011  0  01001
# 00110 01110  0  00110
# 01010 01011  0  01010
# 00101 01111  1  01111
# 11010 11110  1  11110
# 10001 11001  1  11001
# 01100 11111  0  01100
# 11000 10111  1  10111
# 11100 11011  1  11011
# 01001 10000  1  10000
# 10001 10110  1  10110
# 00010 01000  0  00010
# 11101 10010  1  10010
# 01101 11001  0  01101
# 10011 00101  1  00101
# 11011 01001  0  11011
# 01010 11000  1  11000
# 01110 11100  0  01110
# 00110 10011  0  00110
# 01111 10011  1  10011
# 00100 10111  1  10111
# 00110 11010  1  11010
# End time: 21:12:05 on Sep 11,2025, Elapsed time: 0:02:06
# Errors: 0, Warnings: 0
